module gitlab.com/awesome102/prs

go 1.19

require (
	github.com/PuerkitoBio/goquery v1.8.0
	github.com/caarlos0/env/v6 v6.10.1
	github.com/gin-gonic/gin v1.8.1
	github.com/go-telegram-bot-api/telegram-bot-api/v5 v5.5.1
	github.com/joho/godotenv v1.4.0
	github.com/json-iterator/go v1.1.12
	go.uber.org/zap v1.18.1
)

require (
	github.com/andybalholm/cascadia v1.3.1 // indirect
	github.com/beorn7/perks v1.0.1 // indirect
	github.com/cenkalti/backoff/v4 v4.1.3 // indirect
	github.com/cespare/xxhash/v2 v2.1.2 // indirect
	github.com/d7561985/tel/v2 v2.0.7 // indirect
	github.com/davecgh/go-spew v1.1.1 // indirect
	github.com/felixge/httpsnoop v1.0.2 // indirect
	github.com/gin-contrib/sse v0.1.0 // indirect
	github.com/go-logfmt/logfmt v0.5.1 // indirect
	github.com/go-logr/logr v1.2.3 // indirect
	github.com/go-logr/stdr v1.2.2 // indirect
	github.com/go-ole/go-ole v1.2.6 // indirect
	github.com/go-playground/locales v0.14.0 // indirect
	github.com/go-playground/universal-translator v0.18.0 // indirect
	github.com/go-playground/validator/v10 v10.10.0 // indirect
	github.com/goccy/go-json v0.9.7 // indirect
	github.com/golang/protobuf v1.5.2 // indirect
	github.com/grpc-ecosystem/go-grpc-prometheus v1.2.0 // indirect
	github.com/grpc-ecosystem/grpc-gateway/v2 v2.7.0 // indirect
	github.com/leodido/go-urn v1.2.1 // indirect
	github.com/lufia/plan9stats v0.0.0-20211012122336-39d0f177ccd0 // indirect
	github.com/mattn/go-isatty v0.0.14 // indirect
	github.com/matttproud/golang_protobuf_extensions v1.0.1 // indirect
	github.com/modern-go/concurrent v0.0.0-20180306012644-bacd9c7ef1dd // indirect
	github.com/modern-go/reflect2 v1.0.2 // indirect
	github.com/pelletier/go-toml/v2 v2.0.1 // indirect
	github.com/pkg/errors v0.9.1 // indirect
	github.com/pmezard/go-difflib v1.0.0 // indirect
	github.com/power-devops/perfstat v0.0.0-20210106213030-5aafc221ea8c // indirect
	github.com/prometheus/client_golang v1.11.0 // indirect
	github.com/prometheus/client_model v0.2.0 // indirect
	github.com/prometheus/common v0.26.0 // indirect
	github.com/prometheus/procfs v0.6.0 // indirect
	github.com/shirou/gopsutil/v3 v3.22.3 // indirect
	github.com/stretchr/objx v0.5.0 // indirect
	github.com/stretchr/testify v1.8.1 // indirect
	github.com/tklauser/go-sysconf v0.3.10 // indirect
	github.com/tklauser/numcpus v0.4.0 // indirect
	github.com/ugorji/go/codec v1.2.7 // indirect
	github.com/yusufpapurcu/wmi v1.2.2 // indirect
	gitlab.com/vkbs/library v1.2.1 // indirect
	go.opentelemetry.io/contrib/instrumentation/host v0.32.0 // indirect
	go.opentelemetry.io/contrib/instrumentation/net/http/otelhttp v0.32.0 // indirect
	go.opentelemetry.io/contrib/instrumentation/runtime v0.32.0 // indirect
	go.opentelemetry.io/otel v1.7.0 // indirect
	go.opentelemetry.io/otel/exporters/otlp/internal/retry v1.7.0 // indirect
	go.opentelemetry.io/otel/exporters/otlp/otlpmetric v0.30.0 // indirect
	go.opentelemetry.io/otel/exporters/otlp/otlpmetric/otlpmetricgrpc v0.30.0 // indirect
	go.opentelemetry.io/otel/exporters/otlp/otlptrace v1.7.0 // indirect
	go.opentelemetry.io/otel/exporters/otlp/otlptrace/otlptracegrpc v1.7.0 // indirect
	go.opentelemetry.io/otel/metric v0.30.0 // indirect
	go.opentelemetry.io/otel/sdk v1.7.0 // indirect
	go.opentelemetry.io/otel/sdk/metric v0.30.0 // indirect
	go.opentelemetry.io/otel/trace v1.7.0 // indirect
	go.opentelemetry.io/proto/otlp v0.16.0 // indirect
	go.uber.org/atomic v1.7.0 // indirect
	go.uber.org/goleak v1.2.0 // indirect
	go.uber.org/multierr v1.6.0 // indirect
	golang.org/x/crypto v0.0.0-20220112180741-5e0467b6c7ce // indirect
	golang.org/x/net v0.0.0-20211112202133-69e39bad7dc2 // indirect
	golang.org/x/sys v0.0.0-20220319134239-a9b59b0215f8 // indirect
	golang.org/x/text v0.3.6 // indirect
	google.golang.org/genproto v0.0.0-20211118181313-81c1377c94b1 // indirect
	google.golang.org/grpc v1.47.0 // indirect
	google.golang.org/protobuf v1.28.0 // indirect
	gopkg.in/yaml.v2 v2.4.0 // indirect
	gopkg.in/yaml.v3 v3.0.1 // indirect
)
